
o sphere

v -1 0 1.40385e-007
v -0.983024 -0.156077 0.0964607
v -0.983024 0.156077 -0.0964604
v -0.978148 -0.185961 -0.0929805
v -0.978148 0 0.207911
v -0.978148 0 -0.207911
v -0.978148 0.185961 0.0929807
v -0.939205 -0.343331 0.00428931
v -0.939205 -0.157379 0.305166
v -0.939205 0.157379 -0.305166
v -0.939205 0.343331 -0.00428905
v -0.934172 -0.187593 -0.303531
v -0.934172 0.187593 0.303531
v -0.93267 -0.306855 0.189647
v -0.93267 0.306855 -0.189647
v -0.913545 -0.363797 -0.181898
v -0.913545 0 0.406737
v -0.913545 0 -0.406737
v -0.913545 0.363797 0.181899
v -0.866018 -0.490334 0.0979075
v -0.866018 -0.306855 0.394783
v -0.866018 0.306855 -0.394782
v -0.866018 0.490334 -0.0979072
v -0.851981 -0.516806 -0.0839041
v -0.851981 -0.156077 0.499769
v -0.851981 0.156077 -0.499768
v -0.851981 0.516806 0.0839044
v -0.850651 -0.447214 0.276393
v -0.850651 0.447214 -0.276393
v -0.845991 -0.363797 -0.389809
v -0.845991 -0.185961 -0.499718
v -0.845991 0.185961 0.499718
v -0.845991 0.363797 0.38981
v -0.809017 -0.525731 -0.262865
v -0.809017 0 0.587785
v -0.809017 0 -0.587785
v -0.809017 0.525731 0.262866
v -0.762354 -0.644208 0.0617517
v -0.762354 -0.343331 0.548581
v -0.762354 0.343331 -0.548581
v -0.762354 0.644208 -0.0617515
v -0.758172 -0.60373 0.246345
v -0.758172 -0.490334 0.429824
v -0.758172 0.490334 -0.429824
v -0.758172 0.60373 -0.246345
v -0.757312 -0.343331 -0.555521
v -0.757311 0.343331 0.555521
v -0.738585 -0.516806 -0.432902
v -0.738585 -0.156077 -0.655845
v -0.738585 0.156077 0.655845
v -0.738585 0.516806 0.432902
v -0.736686 -0.664689 -0.124433
v -0.736686 0.185961 -0.650164
v -0.736685 -0.185961 0.650164
v -0.736685 0.664689 0.124433
v -0.669131 -0.664689 -0.332344
v -0.669131 0 0.743144
v -0.669131 0 -0.743144
v -0.669131 0.664689 0.332344
v -0.653054 -0.644208 0.398142
v -0.653054 0.644208 -0.398142
v -0.643075 -0.490334 -0.588241
v -0.643075 -0.306855 -0.701637
v -0.643075 0.306855 0.701637
v -0.643075 0.490334 0.588241
v -0.639949 -0.739749 0.207932
v -0.639949 -0.516806 0.568662
v -0.639949 0.516806 -0.568662
v -0.639949 0.739749 -0.207932
v -0.632156 -0.774597 0.0194389
v -0.632156 -0.363797 0.684127
v -0.632156 0.363797 -0.684127
v -0.632156 0.774597 -0.0194387
v -0.580461 -0.644208 -0.498058
v -0.580461 -0.157379 -0.798935
v -0.58046 0.157379 0.798935
v -0.58046 0.644208 0.498058
v -0.57735 -0.794654 -0.187592
v -0.57735 -0.187593 0.794655
v -0.57735 0.187593 -0.794654
v -0.57735 0.794654 0.187593
v -0.525731 -0.447214 -0.723607
v -0.525731 0.447214 0.723607
v -0.522851 -0.774597 0.355846
v -0.522851 -0.664689 0.533682
v -0.522851 0.664689 -0.533681
v -0.522851 0.774597 -0.355846
v -0.5 -0.850651 0.16246
v -0.5 -0.525731 0.688191
v -0.5 0.525731 -0.688191
v -0.5 0.850651 -0.16246
v -0.499999 -0.774597 -0.387298
v -0.499999 0 0.866026
v -0.499999 0 -0.866026
v -0.499999 0.774597 0.387299
v -0.468576 -0.60373 -0.644939
v -0.468576 -0.306855 -0.828418
v -0.468576 0.306855 0.828418
v -0.468576 0.60373 0.644939
v -0.455297 -0.889527 -0.0380263
v -0.455297 -0.363797 0.812623
v -0.455297 0.363797 -0.812623
v -0.455297 0.889527 0.0380264
v -0.395511 -0.739749 -0.544373
v -0.395511 -0.156077 -0.905103
v -0.39551 0.156077 0.905103
v -0.39551 0.739749 0.544373
v -0.390694 -0.889527 -0.236853
v -0.390694 -0.185961 0.901541
v -0.390694 0.185961 -0.901541
v -0.390694 0.889527 0.236853
v -0.36073 -0.490334 -0.793377
v -0.36073 0.490334 0.793377
v -0.356822 -0.794654 0.491123
v -0.356822 0.794655 -0.491123
v -0.345991 -0.889527 0.298381
v -0.345991 -0.664689 0.662178
v -0.345991 0.664689 -0.662178
v -0.345991 0.889527 -0.298381
v -0.343074 -0.93267 0.111472
v -0.343074 -0.516806 0.784354
v -0.343074 0.516806 -0.784354
v -0.343074 0.93267 -0.111472
v -0.309017 -0.850651 -0.425325
v -0.309017 0 0.951057
v -0.309017 0 -0.951056
v -0.309017 0.850651 0.425325
v -0.29431 -0.644208 -0.705959
v -0.29431 -0.343331 -0.891911
v -0.294309 0.343331 0.891911
v -0.294309 0.644208 0.705959
v -0.286151 -0.953663 -0.092976
v -0.286151 -0.343331 0.894562
v -0.286151 0.343331 -0.894562
v -0.286151 0.953663 0.0929761
v -0.213835 -0.774597 -0.595209
v -0.213835 -0.185961 -0.959006
v -0.213834 0.185961 0.959006
v -0.213834 0.774597 0.595209
v -0.212032 -0.93267 -0.291836
v -0.212032 0.156077 -0.964719
v -0.212032 0.93267 0.291836
v -0.212031 -0.156077 0.964719
v -0.183479 -0.516806 -0.83621
v -0.183479 0.516806 0.83621
v -0.17686 -0.889527 0.421262
v -0.17686 -0.774597 0.607223
v -0.17686 0.774597 -0.607223
v -0.17686 0.889527 -0.421262
v -0.176851 -0.953663 0.243415
v -0.176851 -0.644208 0.744124
v -0.176851 0.644208 -0.744124
v -0.176851 0.953663 -0.243415
v -0.174499 -0.983024 0.0566981
v -0.174499 -0.490334 0.853887
v -0.174499 0.490334 -0.853887
v -0.174499 0.983024 -0.0566981
v -0.109305 -0.664689 -0.739082
v -0.109305 -0.363797 -0.925043
v -0.109305 0.363797 0.925043
v -0.109305 0.664689 0.739082
v -0.107846 -0.983024 -0.148438
v -0.107846 -0.306855 0.945626
v -0.107846 0.306855 -0.945626
v -0.107846 0.983024 0.148438
v -0.104529 -0.889527 -0.444764
v -0.104529 0 0.994522
v -0.104529 0 -0.994522
v -0.104529 0.889527 0.444764
v -7.96122e-008 -0.525731 -0.850651
v -5.98336e-008 -0.187593 -0.982247
v -5.68148e-008 -0.794655 -0.607062
v -3.18213e-008 0.157379 -0.987538
v -2.8159e-008 -0.953663 -0.300877
v 0 -1 -0
v 0 0.447214 -0.894427
v 0 0.60373 -0.797189
v 0 0.739749 -0.672883
v 0 0.850651 -0.525731
v 0 0.93267 -0.36073
v 0 0.983024 -0.183479
v 0 1 -0
v 1.71718e-008 -0.983024 0.183479
v 2.8159e-008 0.953663 0.300877
v 3.37606e-008 -0.93267 0.36073
v 4.92031e-008 -0.850651 0.525731
v 5.68148e-008 0.794654 0.607062
v 6.29749e-008 -0.739749 0.672883
v 7.46087e-008 -0.60373 0.797189
v 7.96122e-008 0.525731 0.850651
v 8.37093e-008 -0.447214 0.894427
v 9.19283e-008 0.187593 0.982247
v 9.24235e-008 -0.157379 0.987538
v 0.104529 -0.889527 -0.444764
v 0.104529 0 0.994522
v 0.104529 0 -0.994522
v 0.104529 0.889527 0.444764
v 0.107846 -0.983024 -0.148438
v 0.107846 -0.306855 0.945626
v 0.107846 0.306855 -0.945626
v 0.107846 0.983024 0.148438
v 0.109305 -0.664689 -0.739082
v 0.109305 -0.363797 -0.925043
v 0.109305 0.363797 0.925043
v 0.109305 0.664689 0.739082
v 0.174499 -0.983024 0.0566981
v 0.174499 -0.490334 0.853887
v 0.174499 0.490334 -0.853887
v 0.174499 0.983024 -0.0566981
v 0.176851 -0.953663 0.243415
v 0.176851 -0.644208 0.744124
v 0.176851 0.644208 -0.744124
v 0.176851 0.953663 -0.243415
v 0.17686 -0.889527 0.421262
v 0.17686 -0.774597 0.607223
v 0.17686 0.774597 -0.607223
v 0.17686 0.889527 -0.421262
v 0.183479 -0.516806 -0.83621
v 0.183479 0.516806 0.83621
v 0.212032 -0.93267 -0.291836
v 0.212032 -0.156077 0.964719
v 0.212032 0.156077 -0.964719
v 0.212032 0.93267 0.291836
v 0.213834 -0.774597 -0.595209
v 0.213834 -0.185961 -0.959006
v 0.213834 0.774597 0.595209
v 0.213835 0.185961 0.959006
v 0.286151 -0.953663 -0.0929761
v 0.286151 -0.343331 0.894562
v 0.286151 0.343331 -0.894562
v 0.286151 0.953663 0.0929761
v 0.294309 -0.644208 -0.705959
v 0.294309 -0.343331 -0.891911
v 0.29431 0.343331 0.891911
v 0.29431 0.644208 0.705959
v 0.309017 -0.850651 -0.425325
v 0.309017 0 0.951056
v 0.309017 0 -0.951057
v 0.309017 0.850651 0.425325
v 0.343074 -0.93267 0.111472
v 0.343074 -0.516806 0.784354
v 0.343074 0.516806 -0.784354
v 0.343074 0.93267 -0.111472
v 0.345991 -0.889527 0.298381
v 0.345991 -0.664689 0.662178
v 0.345991 0.664689 -0.662178
v 0.345991 0.889527 -0.298381
v 0.356822 -0.794654 0.491123
v 0.356822 0.794654 -0.491123
v 0.36073 -0.490334 -0.793377
v 0.36073 0.490334 0.793377
v 0.390694 -0.889527 -0.236853
v 0.390694 -0.185961 0.901541
v 0.390694 0.185961 -0.901541
v 0.390694 0.889527 0.236853
v 0.39551 -0.739749 -0.544373
v 0.39551 -0.156077 -0.905103
v 0.39551 0.739749 0.544373
v 0.395511 0.156077 0.905103
v 0.455297 -0.889527 -0.0380264
v 0.455297 -0.363797 0.812623
v 0.455297 0.363797 -0.812623
v 0.455297 0.889527 0.0380263
v 0.468576 -0.60373 -0.644939
v 0.468576 -0.306855 -0.828418
v 0.468576 0.306855 0.828418
v 0.468576 0.60373 0.644939
v 0.499999 -0.774597 -0.387298
v 0.499999 0 0.866026
v 0.499999 0 -0.866026
v 0.499999 0.774597 0.387298
v 0.5 -0.850651 0.16246
v 0.5 -0.525731 0.688191
v 0.5 0.525731 -0.688191
v 0.5 0.850651 -0.16246
v 0.522851 -0.774597 0.355846
v 0.522851 -0.664689 0.533681
v 0.522851 0.664689 -0.533682
v 0.522851 0.774597 -0.355846
v 0.525731 -0.447214 -0.723607
v 0.525731 0.447214 0.723607
v 0.57735 -0.794654 -0.187592
v 0.57735 -0.187593 0.794654
v 0.57735 0.187593 -0.794654
v 0.57735 0.794654 0.187592
v 0.58046 -0.644208 -0.498058
v 0.58046 -0.157379 -0.798935
v 0.58046 0.644208 0.498058
v 0.580461 0.157379 0.798935
v 0.632156 -0.774597 0.0194388
v 0.632156 -0.363797 0.684127
v 0.632156 0.363797 -0.684127
v 0.632156 0.774597 -0.0194389
v 0.639949 -0.739749 0.207932
v 0.639949 -0.516806 0.568662
v 0.639949 0.516806 -0.568662
v 0.639949 0.739749 -0.207932
v 0.643075 -0.490334 -0.588241
v 0.643075 -0.306855 -0.701637
v 0.643075 0.306855 0.701637
v 0.643075 0.490334 0.588241
v 0.653054 -0.644208 0.398142
v 0.653054 0.644208 -0.398142
v 0.669131 -0.664689 -0.332344
v 0.669131 0 0.743144
v 0.669131 0 -0.743144
v 0.669131 0.664689 0.332344
v 0.736685 -0.664689 -0.124433
v 0.736686 -0.185961 0.650164
v 0.736686 0.185961 -0.650164
v 0.736686 0.664689 0.124433
v 0.738585 -0.516806 -0.432902
v 0.738585 -0.156077 -0.655845
v 0.738585 0.156077 0.655845
v 0.738585 0.516806 0.432902
v 0.757311 -0.343331 -0.555521
v 0.757312 0.343331 0.555521
v 0.758172 -0.60373 0.246345
v 0.758172 -0.490334 0.429824
v 0.758172 0.490334 -0.429824
v 0.758172 0.60373 -0.246345
v 0.762354 -0.644208 0.0617515
v 0.762354 -0.343331 0.548581
v 0.762354 0.343331 -0.548581
v 0.762354 0.644208 -0.0617516
v 0.809017 -0.525731 -0.262866
v 0.809017 0 0.587785
v 0.809017 0 -0.587785
v 0.809017 0.525731 0.262865
v 0.845991 -0.363797 -0.389809
v 0.845991 -0.185961 -0.499718
v 0.845991 0.185961 0.499718
v 0.845991 0.363797 0.389809
v 0.850651 -0.447214 0.276393
v 0.850651 0.447214 -0.276393
v 0.851981 -0.516806 -0.0839043
v 0.851981 -0.156077 0.499768
v 0.851981 0.156077 -0.499769
v 0.851981 0.516806 0.0839042
v 0.866018 -0.490334 0.0979073
v 0.866018 -0.306855 0.394782
v 0.866018 0.306855 -0.394782
v 0.866018 0.490334 -0.0979074
v 0.913545 -0.363797 -0.181898
v 0.913545 0 0.406737
v 0.913545 0 -0.406737
v 0.913545 0.363797 0.181898
v 0.93267 -0.306855 0.189647
v 0.93267 0.306855 -0.189647
v 0.934172 -0.187593 -0.303531
v 0.934172 0.187593 0.303531
v 0.939205 -0.343331 0.00428914
v 0.939205 -0.157379 0.305166
v 0.939205 0.157379 -0.305166
v 0.939205 0.343331 -0.00428922
v 0.978148 -0.185961 -0.0929806
v 0.978148 0 0.207911
v 0.978148 0 -0.207911
v 0.978148 0.185961 0.0929806
v 0.983024 -0.156077 0.0964605
v 0.983024 0.156077 -0.0964606
v 1 0 -4.67949e-008

f 181 182 209
f 213 209 243
f 181 213 180
f 181 209 213
f 247 243 275
f 217 213 247
f 180 217 179
f 213 243 247
f 180 213 217
f 279 275 297
f 249 247 279
f 217 249 216
f 179 216 178
f 247 275 279
f 217 247 249
f 179 217 216
f 303 297 321
f 278 279 303
f 246 249 278
f 216 246 212
f 178 212 177
f 279 297 303
f 249 279 278
f 216 249 246
f 178 216 212
f 320 321 335
f 296 303 320
f 274 278 296
f 246 274 242
f 212 242 208
f 177 208 176
f 303 321 320
f 278 303 296
f 246 278 274
f 212 246 242
f 177 212 208
f 209 182 201
f 231 201 223
f 209 231 243
f 209 201 231
f 255 223 239
f 263 231 255
f 243 263 275
f 231 223 255
f 243 231 263
f 271 239 258
f 285 255 271
f 263 285 293
f 275 293 297
f 255 239 271
f 263 255 285
f 275 263 293
f 288 258 267
f 307 271 288
f 311 285 307
f 293 311 325
f 297 325 321
f 271 258 288
f 285 271 307
f 293 285 311
f 297 293 325
f 301 267 281
f 315 288 301
f 329 307 315
f 311 329 339
f 325 339 343
f 321 343 335
f 288 267 301
f 307 288 315
f 311 307 329
f 325 311 339
f 321 325 343
f 201 182 165
f 184 165/70/163 142/59/137
f 201 184/106/185 223/144/227
f 201 165/70/163 184/106/185
f 169/87/160 142/59/137 127/61/127
f 197/116/203 184/106/185 169/87/160
f 223/144/227 197/116/203 239/142/239
f 184/106/185 142/59/137 169/87/160
f 223/144/227 184/106/185 197/116/203
f 139/81/142 127/61/127 107/65/106
f 187/105/186 169/87/160 139/81/142
f 197/116/203 187/105/186 226/122/221
f 239/142/239 226/122/221 258/136/259
f 169/87/160 127/61/127 139/81/142
f 197/116/203 169/87/160 187/105/186
f 239/142/239 197/116/203 226/122/221
f 131/80/129 107/65/106 99/60/99
f 161/92/168 139/81/142 131/80/129
f 205/111/194 187/105/186 161/92/168
f 226/122/221 205/111/194 235/123/235
f 258/136/259 235/123/235 267/141/266
f 139/81/142 107/65/106 131/80/129
f 187/105/186 139/81/142 161/92/168
f 226/122/221 187/105/186 205/111/194
f 258/136/259 226/122/221 235/123/235
f 113/75/113 99/60/99 83/67/83
f 145/90/144 131/80/129 113/75/113
f 190/104/189 161/92/168 145/90/144
f 205/111/194 190/104/189 219/113/218
f 235/123/235 219/113/218 251/128/251
f 267/141/266 251/128/251 281/135/281
f 131/80/129 99/60/99 113/75/113
f 161/92/168 131/80/129 145/90/144
f 205/111/194 161/92/168 190/104/189
f 235/123/235 205/111/194 219/113/218
f 267/141/266 235/123/235 251/128/251
f 182/32/182 157/2/155 165/70/163
f 135/387/133 157/364/155 123/356/123
f 165/70/163 135/27/133 142/59/137
f 165/70/163 157/2/155 135/27/133
f 103/383/102 123/356/123 91/357/90
f 135/27/133 103/13/102 111/42/110
f 142/59/137 111/42/110 127/61/127
f 135/387/133 123/356/123 103/383/102
f 142/59/137 135/27/133 111/42/110
f 73/377/71 91/357/90 69/360/63
f 81/31/79 103/13/102 73/7/71
f 111/42/110 81/31/79 95/48/95
f 127/61/127 95/48/95 107/65/106
f 103/383/102 91/357/90 73/377/71
f 111/42/110 103/13/102 81/31/79
f 127/61/127 111/42/110 95/48/95
f 41/376/44 69/360/63 45/359/40
f 55/18/55 73/7/71 41/6/44
f 81/31/79 55/18/55 59/37/58
f 95/48/95 59/37/58 77/49/77
f 107/65/106 77/49/77 99/60/99
f 73/377/71 69/360/63 41/376/44
f 81/31/79 73/7/71 55/18/55
f 95/48/95 81/31/79 59/37/58
f 107/65/106 95/48/95 77/49/77
f 23/371/23 45/359/40 29/363/28
f 27/385/27 41/376/44 23/371/23
f 37/30/36 55/18/55 27/16/27
f 59/37/58 37/30/36 51/39/51
f 77/49/77 51/39/51 65/54/66
f 99/60/99 65/54/66 83/67/83
f 41/376/44 45/359/40 23/371/23
f 55/18/55 41/6/44 27/16/27
f 59/37/58 55/18/55 37/30/36
f 77/49/77 59/37/58 51/39/51
f 99/60/99 77/49/77 65/54/66
f 182/323/182 181/292/176 157/364/155
f 153/319/150 181/292/176 180/291/179
f 157/364/155 153/319/150 123/356/123
f 157/364/155 181/292/176 153/319/150
f 149/309/148 180/291/179 179/290/175
f 153/319/150 149/309/148 119/338/118
f 123/356/123 119/338/118 91/357/90
f 153/319/150 180/291/179 149/309/148
f 123/356/123 153/319/150 119/338/118
f 148/303/149 179/290/175 178/289/178
f 115/327/114 149/309/148 148/303/149
f 119/338/118 115/327/114 87/344/85
f 91/357/90 87/344/85 69/360/63
f 149/309/148 179/290/175 148/303/149
f 119/338/118 149/309/148 115/327/114
f 91/357/90 119/338/118 87/344/85
f 152/302/152 178/289/178 177/288/177
f 118/314/116 148/303/149 152/302/152
f 115/327/114 118/314/116 86/333/84
f 87/344/85 86/333/84 61/345/61
f 69/360/63 61/345/61 45/359/40
f 148/303/149 178/289/178 152/302/152
f 115/327/114 148/303/149 118/314/116
f 87/344/85 115/327/114 86/333/84
f 69/360/63 87/344/85 61/345/61
f 156/297/156 177/288/177 176/287/181
f 122/312/122 152/302/152 156/297/156
f 90/322/88 118/314/116 122/312/122
f 86/333/84 90/322/88 68/335/65
f 61/345/61 68/335/65 44/350/38
f 45/359/40 44/350/38 29/363/28
f 152/302/152 177/288/177 156/297/156
f 118/314/116 152/302/152 122/312/122
f 86/333/84 118/314/116 90/322/88
f 61/345/61 86/333/84 68/335/65
f 45/359/40 61/345/61 44/350/38
f 198/255/200 206/178/209 175/217/180
f 220/244/226 228/211/230 198/255/200
f 228/211/230 240/170/240 206/178/209
f 198/255/200 228/211/230 206/178/209
f 236/245/238 252/227/253 220/244/226
f 252/227/253 260/198/260 228/211/230
f 260/198/260 272/172/272 240/170/240
f 220/244/226 252/227/253 228/211/230
f 260/198/260 240/170/240 228/211/230
f 256/251/258 268/233/268 236/245/238
f 268/233/268 282/207/283 252/227/253
f 282/207/283 290/192/293 260/198/260
f 290/192/293 294/176/300 272/172/272
f 236/245/238 268/233/268 252/227/253
f 252/227/253 282/207/283 260/198/260
f 290/192/293 272/172/272 260/198/260
f 264/246/264 286/234/286 256/251/258
f 286/234/286 304/222/304 268/233/268
f 304/222/304 308/203/309 282/207/283
f 308/203/309 322/191/318 290/192/293
f 322/191/318 318/173/322 294/176/300
f 256/251/258 286/234/286 268/233/268
f 268/233/268 304/222/304 282/207/283
f 308/203/309 290/192/293 282/207/283
f 322/191/318 294/176/300 290/192/293
f 280/252/280 298/239/296 264/246/264
f 298/239/296 312/224/313 286/234/286
f 312/224/313 326/215/327 304/222/304
f 326/215/327 336/201/336 308/203/309
f 336/201/336 340/186/340 322/191/318
f 340/186/340 334/179/334 318/173/322
f 264/246/264 298/239/296 286/234/286
f 286/234/286 312/224/313 304/222/304
f 304/222/304 326/215/327 308/203/309
f 336/201/336 322/191/318 308/203/309
f 340/186/340 318/173/322 322/191/318
f 206/178/209 183/96/183 175/138/180
f 240/170/240 210/134/212 206/178/209
f 210/134/212 185/97/184 183/96/183
f 206/178/209 210/134/212 183/96/183
f 272/172/272 244/153/245 240/170/240
f 244/153/245 214/124/217 210/134/212
f 214/124/217 186/98/187 185/97/184
f 240/170/240 244/153/245 210/134/212
f 214/124/217 185/97/184 210/134/212
f 294/176/300 276/159/276 272/172/272
f 276/159/276 248/140/249 244/153/245
f 248/140/249 215/118/214 214/124/217
f 215/118/214 188/99/188 186/98/187
f 272/172/272 276/159/276 244/153/245
f 244/153/245 248/140/249 214/124/217
f 215/118/214 186/98/187 214/124/217
f 318/173/322 302/160/302 294/176/300
f 302/160/302 277/148/278 276/159/276
f 277/148/278 245/129/247 248/140/249
f 245/129/247 211/117/210 215/118/214
f 211/117/210 189/100/190 188/99/188
f 294/176/300 302/160/302 276/159/276
f 276/159/276 277/148/278 248/140/249
f 245/129/247 215/118/214 248/140/249
f 211/117/210 188/99/188 215/118/214
f 334/179/334 319/165/324 318/173/322
f 319/165/324 295/150/298 302/160/302
f 295/150/298 273/137/275 277/148/278
f 273/137/275 241/127/241 245/129/247
f 241/127/241 207/112/207 211/117/210
f 207/112/207 191/101/191 189/100/190
f 318/173/322 319/165/324 302/160/302
f 302/160/302 295/150/298 277/148/278
f 277/148/278 273/137/275 245/129/247
f 241/127/241 211/117/210 245/129/247
f 207/112/207 189/100/190 211/117/210
f 183/96/183 154/22/154 175/63/180
f 185/97/184 150/69/151 183/96/183
f 150/69/151 120/33/120 154/22/154
f 150/69/151 154/22/154 183/96/183
f 186/98/187 146/79/146 185/97/184
f 146/79/146 116/50/117 150/69/151
f 116/50/117 88/29/91 120/33/120
f 185/97/184 146/79/146 150/69/151
f 116/50/117 120/33/120 150/69/151
f 188/99/188 147/85/147 186/98/187
f 147/85/147 114/62/115 146/79/146
f 114/62/115 84/44/87 116/50/117
f 84/44/87 66/25/62 88/29/91
f 186/98/187 147/85/147 146/79/146
f 114/62/115 116/50/117 146/79/146
f 84/44/87 88/29/91 116/50/117
f 189/100/190 151/86/153 188/99/188
f 151/86/153 117/74/119 147/85/147
f 117/74/119 85/55/86 114/62/115
f 85/55/86 60/43/60 84/44/87
f 60/43/60 42/26/41 66/25/62
f 188/99/188 151/86/153 147/85/147
f 147/85/147 117/74/119 114/62/115
f 85/55/86 84/44/87 114/62/115
f 60/43/60 66/25/62 84/44/87
f 191/101/191 155/91/157 189/100/190
f 155/91/157 121/76/121 151/86/153
f 121/76/121 89/64/89 117/74/119
f 89/64/89 67/53/64 85/55/86
f 67/53/64 43/38/39 60/43/60
f 43/38/39 28/23/29 42/26/41
f 189/100/190 155/91/157 151/86/153
f 151/86/153 121/76/121 117/74/119
f 89/64/89 85/55/86 117/74/119
f 67/53/64 60/43/60 85/55/86
f 43/38/39 42/26/41 60/43/60
f 154/386/154 162/318/162 175/355/180
f 120/33/120 132/1/132 154/22/154
f 132/361/132 140/329/136 162/318/162
f 132/361/132 162/318/162 154/386/154
f 88/29/91 100/5/101 120/33/120
f 100/375/101 108/346/108 132/361/132
f 108/346/108 124/324/124 140/329/136
f 120/33/120 100/5/101 132/1/132
f 108/346/108 140/329/136 132/361/132
f 66/25/62 70/11/72 88/29/91
f 70/381/72 78/365/81 100/375/101
f 78/365/81 92/340/94 108/346/108
f 92/340/94 104/328/104 124/324/124
f 88/29/91 70/11/72 100/5/101
f 78/365/81 108/346/108 100/375/101
f 92/340/94 124/324/124 108/346/108
f 42/26/41 38/12/43 66/25/62
f 38/382/43 52/370/52 70/381/72
f 52/370/52 56/351/59 78/365/81
f 56/351/59 74/339/76 92/340/94
f 74/339/76 96/325/97 104/328/104
f 66/25/62 38/12/43 70/11/72
f 70/381/72 52/370/52 78/365/81
f 56/351/59 92/340/94 78/365/81
f 74/339/76 104/328/104 92/340/94
f 28/23/29 20/17/22 42/26/41
f 20/17/22 24/3/25 38/12/43
f 24/372/25 34/366/34 52/370/52
f 34/366/34 48/349/48 56/351/59
f 48/349/48 62/334/68 74/339/76
f 62/334/68 82/320/82 96/325/97
f 42/26/41 20/17/22 38/12/43
f 38/382/43 24/372/25 52/370/52
f 34/366/34 56/351/59 52/370/52
f 48/349/48 74/339/76 56/351/59
f 62/334/68 96/325/97 74/339/76
f 162/318/162 198/255/200 175/281/180
f 140/329/136 174/282/173 162/318/162
f 174/282/173 220/244/226 198/255/200
f 174/282/173 198/255/200 162/318/162
f 124/324/124 166/301/159 140/329/136
f 166/301/159 194/272/204 174/282/173
f 194/272/204 236/245/238 220/244/226
f 140/329/136 166/301/159 174/282/173
f 194/272/204 220/244/226 174/282/173
f 104/328/104 136/307/140 124/324/124
f 136/307/140 172/283/193 166/301/159
f 172/283/193 224/266/223 194/272/204
f 224/266/223 256/251/258 236/245/238
f 124/324/124 136/307/140 166/301/159
f 172/283/193 194/272/204 166/301/159
f 224/266/223 236/245/238 194/272/204
f 96/325/97 128/308/128 104/328/104
f 128/308/128 158/296/167 136/307/140
f 158/296/167 202/277/197 172/283/193
f 202/277/197 232/265/234 224/266/223
f 232/265/234 264/246/264 256/251/258
f 104/328/104 128/308/128 136/307/140
f 136/307/140 158/296/167 172/283/193
f 202/277/197 224/266/223 172/283/193
f 232/265/234 256/251/258 224/266/223
f 82/320/82 112/313/112 96/325/97
f 112/313/112 144/298/145 128/308/128
f 144/298/145 170/284/172 158/296/167
f 170/284/172 218/275/219 202/277/197
f 218/275/219 250/260/250 232/265/234
f 250/260/250 280/252/280 264/246/264
f 96/325/97 112/313/112 128/308/128
f 128/308/128 144/298/145 158/296/167
f 158/296/167 170/284/172 202/277/197
f 218/275/219 232/265/234 202/277/197
f 250/260/250 264/246/264 232/265/234
f 176/287/181 208/276/206 200/279/198
f 208/276/206 242/261/242 230/269/229
f 200/279/198 230/269/229 222/274/224
f 208/276/206 230/269/229 200/279/198
f 242/261/242 274/249/274 262/258/263
f 230/269/229 262/258/263 254/263/255
f 222/274/224 254/263/255 238/268/236
f 242/261/242 262/258/263 230/269/229
f 230/269/229 254/263/255 222/274/224
f 274/249/274 296/238/299 292/241/291
f 262/258/263 292/241/291 284/248/285
f 254/263/255 284/248/285 270/256/271
f 238/268/236 270/256/271 257/262/257
f 262/258/263 274/249/274 292/241/291
f 262/258/263 284/248/285 254/263/255
f 238/268/236 254/263/255 270/256/271
f 296/238/299 320/223/325 324/230/319
f 292/241/291 324/230/319 310/236/308
f 284/248/285 310/236/308 306/243/306
f 270/256/271 306/243/306 287/253/288
f 257/262/257 287/253/288 265/257/265
f 292/241/291 296/238/299 324/230/319
f 284/248/285 292/241/291 310/236/308
f 270/256/271 284/248/285 306/243/306
f 257/262/257 270/256/271 287/253/288
f 320/223/325 335/209/335 342/220/343
f 324/230/319 342/220/343 338/225/338
f 310/236/308 338/225/338 328/231/326
f 306/243/306 328/231/326 313/237/312
f 287/253/288 313/237/312 299/242/297
f 265/257/265 299/242/297 280/252/280
f 324/230/319 320/223/325 342/220/343
f 310/236/308 324/230/319 338/225/338
f 306/243/306 310/236/308 328/231/326
f 306/243/306 313/237/312 287/253/288
f 265/257/265 287/253/288 299/242/297
f 335/209/335 343/202/341 349/205/349
f 343/202/341 339/187/337 355/195/354
f 349/205/349 355/195/354 361/200/361
f 343/202/341 355/195/354 349/205/349
f 339/187/337 329/180/329 347/184/344
f 355/195/354 347/184/344 359/189/359
f 361/200/361 359/189/359 362/194/362
f 339/187/337 347/184/344 355/195/354
f 355/195/354 359/189/359 361/200/361
f 329/180/329 315/164/314 333/167/333
f 347/184/344 333/167/333 351/174/351
f 359/189/359 351/174/351 357/182/357
f 362/194/362 357/182/357 360/188/360
f 347/184/344 329/180/329 333/167/333
f 347/184/344 351/174/351 359/189/359
f 362/194/362 359/189/359 357/182/357
f 315/164/314 301/149/294 317/156/317
f 333/167/333 317/156/317 332/162/332
f 351/174/351 332/162/332 345/169/345
f 357/182/357 345/169/345 353/177/352
f 360/188/360 353/177/352 348/183/348
f 333/167/333 315/164/314 317/156/317
f 351/174/351 333/167/333 332/162/332
f 357/182/357 351/174/351 345/169/345
f 360/188/360 357/182/357 353/177/352
f 301/149/294 281/135/281 300/146/295
f 317/156/317 300/146/295 314/151/315
f 332/162/332 314/151/315 327/157/328
f 345/169/345 327/157/328 337/163/339
f 353/177/352 337/163/339 341/168/342
f 348/183/348 341/168/342 334/179/334
f 317/156/317 301/149/294 300/146/295
f 332/162/332 317/156/317 314/151/315
f 345/169/345 332/162/332 327/157/328
f 345/169/345 337/163/339 353/177/352
f 348/183/348 353/177/352 341/168/342
f 281/135/281 251/128/251 266/131/267
f 251/128/251 219/113/218 234/121/233
f 266/131/267 234/121/233 259/126/256
f 251/128/251 234/121/233 266/131/267
f 219/113/218 190/104/189 204/110/195
f 234/121/233 204/110/195 227/115/222
f 259/126/256 227/115/222 237/120/237
f 219/113/218 204/110/195 234/121/233
f 234/121/233 227/115/222 259/126/256
f 190/104/189 145/90/144 160/93/166
f 204/110/195 160/93/166 192/103/170
f 227/115/222 192/103/170 195/108/205
f 237/120/237 195/108/205 221/114/225
f 204/110/195 190/104/189 160/93/166
f 204/110/195 192/103/170 227/115/222
f 237/120/237 227/115/222 195/108/205
f 145/90/144 113/75/113 130/82/131
f 160/93/166 130/82/131 138/88/143
f 192/103/170 138/88/143 167/95/161
f 195/108/205 167/95/161 193/102/171
f 221/114/225 193/102/171 199/109/199
f 160/93/166 145/90/144 130/82/131
f 192/103/170 160/93/166 138/88/143
f 195/108/205 192/103/170 167/95/161
f 221/114/225 195/108/205 193/102/171
f 113/75/113 83/67/83 98/72/98
f 130/82/131 98/72/98 106/77/105
f 138/88/143 106/77/105 125/83/126
f 167/95/161 125/83/126 143/89/139
f 193/102/171 143/89/139 163/94/164
f 199/109/199 163/94/164 191/101/191
f 130/82/131 113/75/113 98/72/98
f 138/88/143 130/82/131 106/77/105
f 138/88/143 125/83/126 167/95/161
f 167/95/161 143/89/139 193/102/171
f 199/109/199 193/102/171 163/94/164
f 83/67/83 65/54/66 64/57/67
f 65/54/66 51/39/51 47/47/47
f 64/57/67 47/47/47 50/52/50
f 65/54/66 47/47/47 64/57/67
f 51/39/51 37/30/36 33/36/33
f 47/47/47 33/36/33 32/41/32
f 50/52/50 32/41/32 35/46/37
f 51/39/51 33/36/33 47/47/47
f 47/47/47 32/41/32 50/52/50
f 37/30/36 27/16/27 19/19/16
f 33/36/33 19/19/16 13/28/12
f 32/41/32 13/28/12 17/34/17
f 35/46/37 17/34/17 25/40/26
f 37/30/36 19/19/16 33/36/33
f 33/36/33 13/28/12 32/41/32
f 32/41/32 17/34/17 35/46/37
f 27/385/27 23/371/23 11/378/10
f 19/19/16 11/8/10 7/14/5
f 13/28/12 7/14/5 5/21/7
f 17/34/17 5/21/7 9/24/8
f 25/40/26 9/24/8 21/35/21
f 19/19/16 27/16/27 11/8/10
f 13/28/12 19/19/16 7/14/5
f 13/28/12 5/21/7 17/34/17
f 25/40/26 17/34/17 9/24/8
f 23/371/23 29/363/28 15/368/15
f 11/378/10 15/368/15 3/373/3
f 7/384/5 3/373/3 1/379/1
f 5/21/7 1/9/1 2/15/2
f 9/24/8 2/15/2 14/20/14
f 21/35/21 14/20/14 28/23/29
f 11/378/10 23/371/23 15/368/15
f 7/384/5 11/378/10 3/373/3
f 7/14/5 1/9/1 5/21/7
f 5/21/7 2/15/2 9/24/8
f 9/24/8 14/20/14 21/35/21
f 29/363/28 44/350/38 22/353/20
f 44/350/38 68/335/65 40/343/42
f 22/353/20 40/343/42 26/348/24
f 44/350/38 40/343/42 22/353/20
f 68/335/65 90/322/88 72/332/73
f 40/343/42 72/332/73 53/337/53
f 26/348/24 53/337/53 36/342/35
f 68/335/65 72/332/73 40/343/42
f 40/343/42 53/337/53 26/348/24
f 90/322/88 122/312/122 102/315/100
f 72/332/73 102/315/100 80/321/80
f 53/337/53 80/321/80 58/330/57
f 36/342/35 58/330/57 49/336/49
f 90/322/88 102/315/100 72/332/73
f 72/332/73 80/321/80 53/337/53
f 53/337/53 58/330/57 36/342/35
f 122/312/122 156/297/156 134/304/134
f 102/315/100 134/304/134 110/310/109
f 80/321/80 110/310/109 94/317/93
f 58/330/57 94/317/93 75/326/74
f 49/336/49 75/326/74 63/331/69
f 102/315/100 122/312/122 134/304/134
f 80/321/80 102/315/100 110/310/109
f 80/321/80 94/317/93 58/330/57
f 49/336/49 58/330/57 75/326/74
f 156/297/156 176/287/181 164/294/165
f 134/304/134 164/294/165 141/299/138
f 110/310/109 141/299/138 126/305/125
f 94/317/93 126/305/125 105/311/107
f 75/326/74 105/311/107 97/316/96
f 63/331/69 97/316/96 82/320/82
f 134/304/134 156/297/156 164/294/165
f 110/310/109 134/304/134 141/299/138
f 110/310/109 126/305/125 94/317/93
f 94/317/93 105/311/107 75/326/74
f 75/326/74 97/316/96 63/331/69
f 348/183/348 334/179/334 340/186/340
f 352/193/353 340/186/340 336/201/336
f 360/188/360 348/183/348 352/193/353
f 352/193/353 348/183/348 340/186/340
f 344/204/346 336/201/336 326/215/327
f 356/199/358 352/193/353 344/204/346
f 362/194/362 360/188/360 356/199/358
f 344/204/346 352/193/353 336/201/336
f 356/199/358 360/188/360 352/193/353
f 312/224/313 330/221/331 326/215/327
f 330/221/331 350/212/350 344/204/346
f 358/206/356 356/199/358 350/212/350
f 358/206/356 361/200/361 362/194/362
f 330/221/331 344/204/346 326/215/327
f 350/212/350 356/199/358 344/204/346
f 358/206/356 362/194/362 356/199/358
f 298/239/296 316/232/316 312/224/313
f 316/232/316 331/226/330 330/221/331
f 331/226/330 346/219/347 350/212/350
f 346/219/347 354/208/355 358/206/356
f 354/208/355 349/205/349 361/200/361
f 316/232/316 330/221/331 312/224/313
f 331/226/330 350/212/350 330/221/331
f 346/219/347 358/206/356 350/212/350
f 354/208/355 361/200/361 358/206/356
f 280/252/280 299/242/297 298/239/296
f 299/242/297 313/237/312 316/232/316
f 313/237/312 328/231/326 331/226/330
f 328/231/326 338/225/338 346/219/347
f 342/220/343 354/208/355 338/225/338
f 342/220/343 335/209/335 349/205/349
f 299/242/297 316/232/316 298/239/296
f 313/237/312 331/226/330 316/232/316
f 328/231/326 346/219/347 331/226/330
f 338/225/338 354/208/355 346/219/347
f 342/220/343 349/205/349 354/208/355
f 199/109/199 191/101/191 207/112/207
f 229/119/228 207/112/207 241/127/241
f 221/114/225 199/109/199 229/119/228
f 229/119/228 199/109/199 207/112/207
f 261/130/262 241/127/241 273/137/275
f 253/125/252 229/119/228 261/130/262
f 237/120/237 221/114/225 253/125/252
f 261/130/262 229/119/228 241/127/241
f 253/125/252 221/114/225 229/119/228
f 295/150/298 291/147/290 273/137/275
f 291/147/290 283/139/284 261/130/262
f 269/132/270 253/125/252 283/139/284
f 269/132/270 259/126/256 237/120/237
f 291/147/290 261/130/262 273/137/275
f 283/139/284 253/125/252 261/130/262
f 269/132/270 237/120/237 253/125/252
f 319/165/324 323/158/321 295/150/298
f 323/158/321 309/152/311 291/147/290
f 309/152/311 305/145/307 283/139/284
f 305/145/307 289/143/289 269/132/270
f 289/143/289 266/131/267 259/126/256
f 323/158/321 291/147/290 295/150/298
f 309/152/311 283/139/284 291/147/290
f 305/145/307 269/132/270 283/139/284
f 289/143/289 259/126/256 269/132/270
f 334/179/334 341/168/342 319/165/324
f 341/168/342 337/163/339 323/158/321
f 337/163/339 327/157/328 309/152/311
f 327/157/328 314/151/315 305/145/307
f 300/146/295 289/143/289 314/151/315
f 300/146/295 281/135/281 266/131/267
f 341/168/342 323/158/321 319/165/324
f 337/163/339 309/152/311 323/158/321
f 327/157/328 305/145/307 309/152/311
f 314/151/315 289/143/289 305/145/307
f 300/146/295 266/131/267 289/143/289
f 21/35/21 28/23/29 43/38/39
f 39/45/45 43/38/39 67/53/64
f 25/40/26 21/35/21 39/45/45
f 39/45/45 21/35/21 43/38/39
f 71/56/70 67/53/64 89/64/89
f 54/51/54 39/45/45 71/56/70
f 35/46/37 25/40/26 54/51/54
f 71/56/70 39/45/45 67/53/64
f 54/51/54 25/40/26 39/45/45
f 121/76/121 101/73/103 89/64/89
f 79/68/78 71/56/70 101/73/103
f 57/58/56 54/51/54 79/68/78
f 50/52/50 35/46/37 57/58/56
f 101/73/103 71/56/70 89/64/89
f 79/68/78 54/51/54 71/56/70
f 57/58/56 35/46/37 54/51/54
f 155/91/157 133/84/135 121/76/121
f 133/84/135 109/78/111 101/73/103
f 109/78/111 93/71/92 79/68/78
f 76/66/75 57/58/56 93/71/92
f 76/66/75 64/57/67 50/52/50
f 133/84/135 101/73/103 121/76/121
f 109/78/111 79/68/78 101/73/103
f 93/71/92 57/58/56 79/68/78
f 76/66/75 50/52/50 57/58/56
f 191/101/191 163/94/164 155/91/157
f 163/94/164 143/89/139 133/84/135
f 143/89/139 125/83/126 109/78/111
f 106/77/105 93/71/92 125/83/126
f 98/72/98 76/66/75 106/77/105
f 83/67/83 64/57/67 98/72/98
f 163/94/164 133/84/135 155/91/157
f 143/89/139 109/78/111 133/84/135
f 125/83/126 93/71/92 109/78/111
f 106/77/105 76/66/75 93/71/92
f 98/72/98 64/57/67 76/66/75
f 63/331/69 82/320/82 62/334/68
f 46/341/46 62/334/68 48/349/48
f 49/336/49 63/331/69 46/341/46
f 46/341/46 63/331/69 62/334/68
f 30/352/31 48/349/48 34/366/34
f 31/347/30 46/341/46 30/352/31
f 36/342/35 49/336/49 31/347/30
f 30/352/31 46/341/46 48/349/48
f 31/347/30 49/336/49 46/341/46
f 24/372/25 16/369/18 34/366/34
f 12/358/13 30/352/31 16/369/18
f 18/354/19 31/347/30 12/358/13
f 26/348/24 36/342/35 18/354/19
f 16/369/18 30/352/31 34/366/34
f 12/358/13 31/347/30 30/352/31
f 18/354/19 36/342/35 31/347/30
f 20/17/22 8/10/9 24/3/25
f 8/380/9 4/374/4 16/369/18
f 4/374/4 6/367/6 12/358/13
f 10/362/11 18/354/19 6/367/6
f 10/362/11 22/353/20 26/348/24
f 8/380/9 16/369/18 24/372/25
f 4/374/4 12/358/13 16/369/18
f 6/367/6 18/354/19 12/358/13
f 10/362/11 26/348/24 18/354/19
f 28/23/29 14/20/14 20/17/22
f 14/20/14 2/15/2 8/10/9
f 2/15/2 1/9/1 4/4/4
f 3/373/3 6/367/6 1/379/1
f 15/368/15 10/362/11 3/373/3
f 29/363/28 22/353/20 15/368/15
f 14/20/14 8/10/9 20/17/22
f 2/15/2 4/4/4 8/10/9
f 1/379/1 6/367/6 4/374/4
f 3/373/3 10/362/11 6/367/6
f 15/368/15 22/353/20 10/362/11
f 265/257/265 280/252/280 250/260/250
f 233/267/232 250/260/250 218/275/219
f 257/262/257 265/257/265 233/267/232
f 233/267/232 265/257/265 250/260/250
f 203/278/196 218/275/219 170/284/172
f 225/273/220 233/267/232 203/278/196
f 238/268/236 257/262/257 225/273/220
f 203/278/196 233/267/232 218/275/219
f 225/273/220 257/262/257 233/267/232
f 144/298/145 159/295/169 170/284/172
f 159/295/169 171/285/192 203/278/196
f 196/280/202 225/273/220 171/285/192
f 196/280/202 222/274/224 238/268/236
f 159/295/169 203/278/196 170/284/172
f 171/285/192 225/273/220 203/278/196
f 196/280/202 238/268/236 225/273/220
f 112/313/112 129/306/130 144/298/145
f 129/306/130 137/300/141 159/295/169
f 137/300/141 168/293/158 171/285/192
f 168/293/158 173/286/174 196/280/202
f 173/286/174 200/279/198 222/274/224
f 129/306/130 159/295/169 144/298/145
f 137/300/141 171/285/192 159/295/169
f 168/293/158 196/280/202 171/285/192
f 173/286/174 222/274/224 196/280/202
f 82/320/82 97/316/96 112/313/112
f 97/316/96 105/311/107 129/306/130
f 105/311/107 126/305/125 137/300/141
f 141/299/138 168/293/158 126/305/125
f 164/294/165 173/286/174 141/299/138
f 164/294/165 176/287/181 200/279/198
f 97/316/96 129/306/130 112/313/112
f 105/311/107 137/300/141 129/306/130
f 126/305/125 168/293/158 137/300/141
f 141/299/138 173/286/174 168/293/158
f 164/294/165 200/279/198 173/286/174


